%YAML 1.1
%TAG !u! tag:unity3d.com,2011:
--- !u!1045 &1
EditorBuildSettings:
  m_ObjectHideFlags: 0
  serializedVersion: 2
  m_Scenes:
  - enabled: 1
    path: Assets/Scenes/Digital Block Pt. 2 pt. 2.unity
    guid: ff502d5e78584df44b59939869d1910e
  - enabled: 1
    path: Assets/Scenes/Digital Block Pt. 2.unity
    guid: 563be4c928b8cbb4a81d5acb030e24df
  m_configObjects: {}
